3.11037647 45.76009770
3.11052897 45.76014523
3.11052786 45.76014714
3.11042545 45.76011525
3.11038895 45.76017407
3.11032597 45.76017855
3.11032571 45.76017809
3.11037647 45.76009770
3.11037647 45.76009770
