3.11025819 45.76039045
3.11027110 45.76042604
3.11027743 45.76045664
3.11024873 45.76042914
3.11023831 45.76040277
3.11024681 45.76039236
3.11025819 45.76039045
3.11025819 45.76039045
3.11025819 45.76039045
