3.11044828 45.76038885
3.11045050 45.76038642
3.11046476 45.76036434
3.11046593 45.76036471
3.11045168 45.76038679
3.11044926 45.76038944
3.11044828 45.76038885
3.11044828 45.76038885
3.11044828 45.76038885
