3.11034781 45.76039719
3.11036721 45.76040264
3.11038348 45.76040533
3.11038349 45.76040624
3.11036673 45.76040348
3.11034733 45.76039802
3.11034781 45.76039719
3.11034781 45.76039719
3.11034781 45.76039719
