3.10998082 45.76028900
3.10999845 45.76029074
3.11001876 45.76029125
3.11001871 45.76029214
3.10999841 45.76029164
3.10998051 45.76028988
3.10998082 45.76028900
3.10998082 45.76028900
3.10998082 45.76028900
