3.11017726 45.76031044
3.11013777 45.76031022
3.11010842 45.76032757
3.11010117 45.76034486
3.11010788 45.76036225
3.11013880 45.76038175
3.11016397 45.76038177
3.11018351 45.76037725
3.11020993 45.76035477
3.11020486 45.76033056
3.11017726 45.76031044
3.11017726 45.76031044
