3.11013270 45.76015809
3.11020798 45.76018013
3.11021597 45.76018337
3.11022563 45.76019029
3.11022654 45.76019484
3.11021991 45.76019894
3.11009851 45.76020749
3.11008820 45.76020368
3.11008827 45.76019572
3.11010638 45.76016813
3.11011659 45.76015982
3.11013270 45.76015809
3.11013270 45.76015809
