Linked: (/home/local.isima.fr/endurel/ws_tp/devel/.private/ip_drawing_tools/lib/libip_drawing_tools.so, /home/local.isima.fr/endurel/ws_tp/devel/lib/libip_drawing_tools.so)
Linked: (/home/local.isima.fr/endurel/ws_tp/devel/.private/ip_drawing_tools/lib/pkgconfig/ip_drawing_tools.pc, /home/local.isima.fr/endurel/ws_tp/devel/lib/pkgconfig/ip_drawing_tools.pc)
Linked: (/home/local.isima.fr/endurel/ws_tp/devel/.private/ip_drawing_tools/share/ip_drawing_tools/cmake/ip_drawing_toolsConfig-version.cmake, /home/local.isima.fr/endurel/ws_tp/devel/share/ip_drawing_tools/cmake/ip_drawing_toolsConfig-version.cmake)
Linked: (/home/local.isima.fr/endurel/ws_tp/devel/.private/ip_drawing_tools/share/ip_drawing_tools/cmake/ip_drawing_toolsConfig.cmake, /home/local.isima.fr/endurel/ws_tp/devel/share/ip_drawing_tools/cmake/ip_drawing_toolsConfig.cmake)
