Warning: Cannot symlink from /home/local.isima.fr/endurel/zz_ws_ros/ws_tp/devel/.private/ip_drawing_tools/lib/pkgconfig/ip_drawing_tools.pc to existing file /home/local.isima.fr/endurel/zz_ws_ros/ws_tp/devel/lib/pkgconfig/ip_drawing_tools.pc
Warning: Source hash: 49b4c0f7f52afb87a08fd09406312e6b
Warning: Dest hash: e63b6b87556ab6f088e22964315119b8
Warning: Cannot symlink from /home/local.isima.fr/endurel/zz_ws_ros/ws_tp/devel/.private/ip_drawing_tools/share/ip_drawing_tools/cmake/ip_drawing_toolsConfig.cmake to existing file /home/local.isima.fr/endurel/zz_ws_ros/ws_tp/devel/share/ip_drawing_tools/cmake/ip_drawing_toolsConfig.cmake
Warning: Source hash: e559d81ac0faa482fc8455846a787eb8
Warning: Dest hash: 353f381286818caf3bbd74432698a437
