[01m[K/home/local.isima.fr/endurel/ws_tp/src/tp_sinus/src/tp_sinus_node.cpp:[m[K In function ‘[01m[Kint main(int, char**)[m[K’:
[01m[K/home/local.isima.fr/endurel/ws_tp/src/tp_sinus/src/tp_sinus_node.cpp:23:9:[m[K [01;31m[Kerror: [m[K‘[01m[Ksinus[m[K’ was not declared in this scope
   23 |         [01;31m[Ksinus[m[K.header.frame_id = 1;
      |         [01;31m[K^~~~~[m[K
make[2]: *** [CMakeFiles/tp_sinus_node.dir/build.make:63: CMakeFiles/tp_sinus_node.dir/src/tp_sinus_node.cpp.o] Error 1
make[1]: *** [CMakeFiles/Makefile2:538: CMakeFiles/tp_sinus_node.dir/all] Error 2
make: *** [Makefile:141: all] Error 2
