3.11035933 45.76020497
3.11033551 45.76024361
3.11027142 45.76027731
3.11026198 45.76027442
3.11030299 45.76020895
3.11035933 45.76020497
3.11035933 45.76020497
3.11035933 45.76020497
3.11035933 45.76020497
