3.10989176 45.7601094
3.10991283 45.76011637
3.10985903 45.76019715
3.10984837 45.76023429
3.10985659 45.76025669
3.10987722 45.76027476
3.10991611 45.76029089
3.10989396 45.7603256
3.10989396 45.7603256
3.10989396 45.7603256
3.10989396 45.7603256
