3.11024494 45.76076821
3.1102576 45.76075216
3.11028988 45.76070747
3.11031057 45.76066299
3.11031945 45.76063032
3.11031984 45.76061209
3.11031023 45.76056317
3.11030181 45.76051596
3.11030095 45.76049514
3.11030019 45.76048296
3.11035134 45.76048564
3.11038574 45.76047851
3.11041223 45.76046158
3.11044081 45.76043261
3.11047847 45.76044516
3.11047847 45.76044516
3.11047847 45.76044516
3.11047847 45.76044516
