3.11056643 45.76013656
3.11055397 45.76012636
3.11053958 45.7601182
3.11054039 45.7601175
3.11055478 45.76012566
3.11056754 45.76013611
3.11056643 45.76013656
3.11056643 45.76013656
3.11056643 45.76013656
3.11056643 45.76013656
