3.11039481 45.76040358
3.11041297 45.76040121
3.11043016 45.76039466
3.11043078 45.76039545
3.11041359 45.760402
3.11039464 45.76040447
3.11039481 45.76040358
3.11039481 45.76040358
3.11039481 45.76040358
3.11039481 45.76040358
