3.11018892 45.76029338
3.11022766 45.76032525
3.1102285 45.76036073
3.11021213 45.7603786
3.11019334 45.76038985
3.11015219 45.76039918
3.11011994 45.76039658
3.11009936 45.76038589
3.11007983 45.7603646
3.11007294 45.76034357
3.11007785 45.7603171
3.11012303 45.76028983
3.11015651 45.76028675
3.11018892 45.76029338
3.11018892 45.76029338
3.11018892 45.76029338
