3.11018463 45.76003669
3.1101929 45.76003109
3.11020167 45.76003098
3.11027266 45.76005281
3.11029987 45.76007288
3.11030316 45.76008588
3.11030013 45.76009988
3.11027152 45.76014547
3.11024401 45.76016293
3.11020938 45.76016217
3.11013768 45.76014113
3.11012895 45.76013333
3.11012848 45.76012353
3.11018463 45.76003669
3.11018463 45.76003669
3.11018463 45.76003669
