3.11052148 45.76019558
3.11052599 45.76021166
3.11052543 45.76021894
3.11047005 45.76030591
3.11045327 45.76031988
3.11044064 45.76032452
3.11052148 45.76019558
3.11052148 45.76019558
3.11052148 45.76019558
