[  0%] Built target std_msgs_generate_messages_nodejs
[  0%] Built target std_msgs_generate_messages_lisp
[  0%] Built target std_msgs_generate_messages_cpp
[  0%] Built target std_msgs_generate_messages_eus
[  0%] Built target _tp_msgs_generate_messages_check_deps_Sinus
[  0%] Built target std_msgs_generate_messages_py
[ 14%] Built target tp_msgs_generate_messages_nodejs
[ 28%] Built target tp_msgs_generate_messages_lisp
[ 42%] Built target tp_msgs_generate_messages_cpp
[ 85%] Built target tp_msgs_generate_messages_py
[100%] Built target tp_msgs_generate_messages_eus
[100%] Built target tp_msgs_generate_messages
