[31m[1mCMake Error[0m at /home/local.isima.fr/endurel/ws_tp/build/tp_msgs/cmake/tp_msgs-genmsg.cmake:3 (message):
  Could not find messages which
  '/home/local.isima.fr/endurel/ws_tp/src/tp_msgs/msg/Sinus.msg' depends on.
  Did you forget to specify generate_messages(DEPENDENCIES ...)?

  Cannot locate message [Header]: unknown package [std_msgs] on search path
  [{{'tp_msgs': ['/home/local.isima.fr/endurel/ws_tp/src/tp_msgs/msg',
  '/home/local.isima.fr/endurel/ws_tp/src/tp_msgs/msg']}}]
[36mCall Stack (most recent call first):[0m
  /opt/ros/noetic/share/genmsg/cmake/genmsg-extras.cmake:307 (include)
  CMakeLists.txt:69 (generate_messages)


