[31m[1mCMake Error[0m at /opt/ros/noetic/share/genmsg/cmake/genmsg-extras.cmake:263 (message):
  Messages depends on unknown pkg: header (Missing 'find_package(header)'?)
[36mCall Stack (most recent call first):[0m
  CMakeLists.txt:69 (generate_messages)


