3.11045348 45.76039125
3.1104557 45.76038882
3.11046996 45.76036674
3.11047113 45.76036711
3.11045688 45.76038919
3.11045446 45.76039184
3.11045348 45.76039125
3.11045348 45.76039125
3.11045348 45.76039125
3.11045348 45.76039125
