3.11003842 45.76002191
3.11004078 45.76002266
3.11003518 45.76003111
3.10999801 45.76008908
3.10999574 45.76008835
3.11003298 45.76003039
3.11003842 45.76002191
3.11003842 45.76002191
3.11003842 45.76002191
