3.11019503 45.76004149
3.1102033 45.76003589
3.11021207 45.76003578
3.11028306 45.76005761
3.11031027 45.76007768
3.11031356 45.76009068
3.11031053 45.76010468
3.11028192 45.76015027
3.11025441 45.76016773
3.11021978 45.76016697
3.11014808 45.76014593
3.11013935 45.76013813
3.11013888 45.76012833
3.11019503 45.76004149
3.11019503 45.76004149
3.11019503 45.76004149
