3.11053188 45.76020038
3.11053639 45.76021646
3.11053583 45.76022374
3.11048045 45.76031071
3.11046367 45.76032468
3.11045104 45.76032932
3.11053188 45.76020038
3.11053188 45.76020038
3.11053188 45.76020038
